C:\Users\kjaraszek\Documents\CustomerArea\src\test\java\Initializer.java
C:\Users\kjaraszek\Documents\CustomerArea\src\test\java\TestSuit.java
C:\Users\kjaraszek\Documents\CustomerArea\src\test\java\OldTest.java
